<svg width="24" height="24" viewBox="0 0 24 24" fill="none" xmlns="http://www.w3.org/2000/svg">
<path d="M3 7.00024H21" stroke="white" stroke-width="1.5" stroke-linecap="round"/>
<path d="M3 12H21" stroke="white" stroke-width="1.5" stroke-linecap="round"/>
<path d="M3 16.9998H21" stroke="white" stroke-width="1.5" stroke-linecap="round"/>
</svg>
