<svg width="118" height="101" viewBox="0 0 118 101" fill="none" xmlns="http://www.w3.org/2000/svg">
<g clip-path="url(#clip0_3432_6776)">
<path d="M54.5451 26.4001C53.6132 26.4001 52.8403 27.172 52.8403 28.1028C52.8403 29.0335 53.6132 29.8054 54.5451 29.8054H63.4554C64.3873 29.8054 65.1602 29.0335 65.1602 28.1028C65.1602 27.172 64.3873 26.4001 63.4554 26.4001H54.5451Z" fill="#FFE600"/>
<path d="M23.291 58.9087C24.2229 58.9087 24.9957 58.1369 24.9957 57.2061V54.6409C24.9957 53.8236 25.9277 53.1199 27.0187 53.1199H57.2955V57.2061C57.2955 58.1369 58.0684 58.9087 59.0003 58.9087C59.9323 58.9087 60.7051 58.1369 60.7051 57.2061V53.1199H90.9819C92.073 53.1199 93.0049 53.8236 93.0049 54.6409V57.2061C93.0049 58.1369 93.7777 58.9087 94.7097 58.9087C95.6416 58.9087 96.4145 58.1369 96.4145 57.2061V54.6409C96.4145 51.9167 93.9823 49.7146 90.9819 49.7146H60.7051V46.5364H69.7518C71.6384 46.5364 73.184 44.9927 73.184 43.1085V41.7691H74.1387C78.2756 41.7691 82.208 40.1573 85.2311 37.2515C88.277 34.3003 89.9818 30.4184 90.05 26.3094C90.1181 21.5875 88.0724 17.138 84.4356 14.096C83.7082 13.4831 82.6399 13.5966 82.0261 14.3003C81.4124 15.0268 81.5033 16.0937 82.2307 16.7067C85.072 19.0903 86.6859 22.5637 86.6404 26.264C86.5495 32.8247 80.8214 38.3866 74.1387 38.3866H73.184V37.6828C73.184 35.7986 71.6384 34.2549 69.7518 34.2549H48.2489C46.3622 34.2549 44.8166 35.7986 44.8166 37.6828V38.3866H42.1117C36.2018 38.3866 31.383 33.6874 31.3602 27.8758C31.3375 25.0381 32.4513 22.3821 34.4743 20.3616C36.4746 18.3639 39.1113 17.2742 41.9526 17.2742C41.9753 17.2742 41.998 17.2742 42.0435 17.2742C42.8845 17.2742 43.5891 16.6613 43.7255 15.844C44.2483 12.5977 45.9304 9.64653 48.4307 7.48989C50.9765 5.31054 54.2042 4.10737 57.5456 4.10737C63.3191 4.10737 68.4107 7.55799 70.5701 12.9155C70.8656 13.6647 71.6384 14.096 72.4112 13.9598C73.8887 13.7328 75.3889 13.7555 76.8436 14.0733C77.7756 14.2776 78.6621 13.6647 78.8666 12.7566C79.0485 11.8259 78.4575 10.9405 77.5483 10.7362C76.1163 10.4411 74.6615 10.3503 73.2068 10.4411C70.2973 4.47059 64.2738 0.679443 57.5456 0.679443C53.3859 0.679443 49.3626 2.17774 46.2031 4.87922C43.43 7.24017 41.498 10.4184 40.6342 13.9144C37.3838 14.2095 34.3834 15.617 32.0649 17.9326C29.4054 20.5886 27.9279 24.1074 27.9507 27.8758C27.9734 35.5262 34.3379 41.7691 42.1117 41.7691H44.8166V43.1085C44.8166 44.9927 46.3622 46.5364 48.2489 46.5364H57.2955V49.7146H27.0187C24.0183 49.7146 21.5862 51.9167 21.5862 54.6409V57.2061C21.5862 58.1369 22.359 58.9087 23.291 58.9087ZM48.2261 43.1085V37.6601C48.2261 37.6601 48.2261 37.6374 48.2489 37.6374H69.7518C69.7518 37.6374 69.7745 37.6374 69.7745 37.6601V43.1085C69.7745 43.1085 69.7745 43.1312 69.7518 43.1312L48.2261 43.1085Z" fill="#FFE600"/>
<path d="M41.4751 90.6454V69.9417C41.4751 67.8985 39.7931 66.2186 37.7474 66.2186H18.2675C17.3355 66.2186 16.5627 66.9905 16.5627 67.9212C16.5627 68.852 17.3355 69.6238 18.2675 69.6238H37.7474C37.9292 69.6238 38.0656 69.7601 38.0656 69.9417V90.6454H6.56135V69.9417C6.56135 69.7601 6.69773 69.6238 6.87957 69.6238H11.4711C12.403 69.6238 13.1759 68.852 13.1759 67.9212C13.1759 66.9905 12.403 66.2186 11.4711 66.2186H6.85684C4.81111 66.2186 3.12907 67.8985 3.12907 69.9417V90.6454C1.83344 90.7362 0.787842 91.8259 0.787842 93.1426V98.205C0.787842 99.5898 1.92436 100.725 3.31091 100.725H41.2933C42.6799 100.725 43.8164 99.5898 43.8164 98.205V93.1426C43.8164 91.8259 42.7708 90.7362 41.4751 90.6454ZM40.4068 97.2969H4.22012V94.0279H40.4068V97.2969Z" fill="#FFE600"/>
<path d="M112.848 62.3367H80.5031C78.1164 62.3367 76.1616 64.289 76.1616 66.6727V90.3276C76.1616 92.7112 78.1164 94.6636 80.5031 94.6636H83.7536C84.6855 94.6636 85.4583 93.8917 85.4583 92.961C85.4583 92.0302 84.6855 91.2584 83.7536 91.2584H80.5031C80.003 91.2584 79.5712 90.8497 79.5712 90.3276V86.7181H113.78V90.3276C113.78 90.827 113.371 91.2584 112.848 91.2584H90.4817C89.5498 91.2584 88.777 92.0302 88.777 92.961C88.777 93.8917 89.5498 94.6636 90.4817 94.6636H91.2773C91.0727 95.7078 90.5045 96.684 89.7998 97.3196H87.3677C86.4357 97.3196 85.6629 98.0915 85.6629 99.0223C85.6629 99.953 86.4357 100.725 87.3677 100.725H105.961C106.893 100.725 107.666 99.953 107.666 99.0223C107.666 98.0915 106.893 97.3196 105.961 97.3196H103.552C102.847 96.684 102.256 95.7078 102.074 94.6636H112.871C115.258 94.6636 117.213 92.7112 117.213 90.3276V66.6727C117.19 64.289 115.235 62.3367 112.848 62.3367ZM99.392 97.2969H93.9822C94.3913 96.4797 94.6641 95.5716 94.755 94.6409H98.6192C98.7101 95.5943 98.9829 96.4797 99.392 97.2969ZM79.5712 83.3128V66.6727C79.5712 66.1732 79.9803 65.7419 80.5031 65.7419H112.848C113.348 65.7419 113.78 66.1505 113.78 66.6727V83.3128H79.5712Z" fill="#FFE600"/>
<path d="M66.1603 65.3787H51.8174C49.8399 65.3787 48.2488 66.9905 48.2488 68.9428V97.1153C48.2488 99.0904 49.8626 100.679 51.8174 100.679H66.1603C68.1378 100.679 69.729 99.0677 69.729 97.1153V68.9655C69.7517 66.9905 68.1378 65.3787 66.1603 65.3787ZM51.6583 68.9655C51.6583 68.8747 51.7265 68.8066 51.8174 68.8066H66.1603C66.2512 68.8066 66.3194 68.8747 66.3194 68.9655V89.5784H51.6356V68.9655H51.6583ZM66.3421 97.138C66.3421 97.2288 66.2739 97.2969 66.183 97.2969H51.8402C51.7493 97.2969 51.6811 97.2288 51.6811 97.138V92.9837H66.3649V97.138H66.3421Z" fill="#FFE600"/>
</g>
<defs>
<clipPath id="clip0_3432_6776">
<rect width="116.379" height="100" fill="white" transform="translate(0.810547 0.702148)"/>
</clipPath>
</defs>
</svg>
