<svg width="14" height="7" viewBox="0 0 14 7" fill="none" xmlns="http://www.w3.org/2000/svg">
<path d="M6.55369 6.8041C6.66607 6.90051 6.83199 6.90051 6.94437 6.8041L13.2643 1.38218C13.4756 1.20087 13.3474 0.854492 13.0689 0.854492H0.429118C0.150662 0.854492 0.0224409 1.20087 0.233781 1.38218L6.55369 6.8041Z" fill="white"/>
</svg>
