<svg width="18" height="21" viewBox="0 0 18 21" fill="none" xmlns="http://www.w3.org/2000/svg">
<path fill-rule="evenodd" clip-rule="evenodd" d="M8.23082 1.17105C8.54749 0.924754 8.99091 0.924754 9.30758 1.17105L17.1999 7.30949C17.4135 7.47563 17.5384 7.73108 17.5384 8.00169V17.6478C17.5384 18.3455 17.2612 19.0147 16.7679 19.508C16.2745 20.0014 15.6054 20.2786 14.9076 20.2786H2.63076C1.93304 20.2786 1.26389 20.0014 0.770532 19.508C0.277169 19.0147 0 18.3455 0 17.6478V8.00169C0 7.73108 0.124937 7.47563 0.338543 7.30949L8.23082 1.17105ZM1.75384 8.43057V17.6478C1.75384 17.8804 1.84623 18.1034 2.01068 18.2679C2.17514 18.4323 2.39819 18.5247 2.63076 18.5247H14.9076C15.1402 18.5247 15.3633 18.4323 15.5277 18.2679C15.6922 18.1034 15.7846 17.8804 15.7846 17.6478V8.43057L8.7692 2.97418L1.75384 8.43057Z" fill="#DA2032"/>
<path fill-rule="evenodd" clip-rule="evenodd" d="M5.26172 10.6318C5.26172 10.1475 5.65433 9.75488 6.13864 9.75488H11.4002C11.8845 9.75488 12.2771 10.1475 12.2771 10.6318V19.401C12.2771 19.8853 11.8845 20.2779 11.4002 20.2779C10.9158 20.2779 10.5232 19.8853 10.5232 19.401V11.5087H7.01556V19.401C7.01556 19.8853 6.62295 20.2779 6.13864 20.2779C5.65433 20.2779 5.26172 19.8853 5.26172 19.401V10.6318Z" fill="#DA2032"/>
</svg>
