<svg width="33" height="33" viewBox="0 0 33 33" fill="none" xmlns="http://www.w3.org/2000/svg">
<path d="M13.5169 24.2044C15.8835 24.2039 18.182 23.4117 20.0462 21.9538L25.9076 27.8151L27.7929 25.9298L21.9316 20.0684C23.3902 18.204 24.183 15.905 24.1836 13.5378C24.1836 7.65643 19.3982 2.87109 13.5169 2.87109C7.63555 2.87109 2.85022 7.65643 2.85022 13.5378C2.85022 19.4191 7.63555 24.2044 13.5169 24.2044ZM13.5169 5.53776C17.9289 5.53776 21.5169 9.12576 21.5169 13.5378C21.5169 17.9498 17.9289 21.5378 13.5169 21.5378C9.10489 21.5378 5.51689 17.9498 5.51689 13.5378C5.51689 9.12576 9.10489 5.53776 13.5169 5.53776Z" fill="#3699FF"/>
<path d="M15.3996 11.6525C15.9049 12.1591 16.1836 12.8285 16.1836 13.5378H18.8502C18.8514 12.837 18.7137 12.143 18.445 11.4958C18.1763 10.8486 17.782 10.261 17.2849 9.76713C15.2662 7.75113 11.7662 7.75113 9.7489 9.76713L11.6316 11.6551C12.6449 10.6445 14.3916 10.6471 15.3996 11.6525Z" fill="#3699FF"/>
</svg>
